FIAT;Punto;EW897CX;20 €;12/03/2022
Ford;Fiesta;VB540TC;18 €;12/03/2022
FIAT;500;BN206FG;33 €;12/03/2022
Alfa-Romeo;Giulietta;XD123SD;30 €;12/03/2022
Mini-Couper;Mini;JH897AAS;35 €;12/03/2022
FIAT;Panda;KK000LL;10 €;12/03/2022
